<svg width="350" height="237" viewBox="0 0 350 237" fill="none" xmlns="http://www.w3.org/2000/svg">
<g clip-path="url(#clip0_2_50)">
<path opacity="0.3" d="M345.445 0V208.892L343.978 205.632V196.363H343.935L343 0.66301L345.445 0Z" fill="black"/>
<path opacity="0.3" d="M12 197.07V206.303L8.02676 210.969L8 211L8.10702 0L12 0.832592V197.07Z" fill="black"/>
<path opacity="0.15" d="M344.954 209.203L350 220H0L8.43254 210.523L8.45731 210.493L8.5316 210.41L12.1349 206H22.5115L332.714 206.06H343.481L344.954 209.304V209.203Z" fill="white"/>
<path opacity="0.15" d="M349.969 220.459H0.020874V236.606H349.969V220.459Z" fill="black"/>
</g>
<defs>
<clipPath id="clip0_2_50">
<rect width="349.948" height="236.348" fill="white" transform="translate(0.020874 0.258911)"/>
</clipPath>
</defs>
</svg>
