<svg width="465" height="312" viewBox="0 0 465 312" fill="none" xmlns="http://www.w3.org/2000/svg">
<path d="M463.546 0.223235H391.433H391.414V12.1272L388.44 20.9283L383.918 22.1484L384.897 227.025H374.123L63.7224 226.963H53.333V22.1484L48.0299 20.9283L42.6524 12.1272V0.223235H0.586609V312.619H464.617V34.2939V16.8034V13.4898V0.223235V0.217041C464.326 0.254202 463.961 0.223235 463.546 0.223235Z" fill="#8A8A7F"/>
</svg>
