<svg width="312" height="10" viewBox="0 0 312 10" fill="none" xmlns="http://www.w3.org/2000/svg">
<g clip-path="url(#clip0_2_336)">
<path d="M311 -1V10L0 9.92647V-1H311Z" fill="#CEC2AA"/>
</g>
<defs>
<clipPath id="clip0_2_336">
<rect width="310.477" height="9.14583" fill="white" transform="translate(0.644745 0.653564)"/>
</clipPath>
</defs>
</svg>
