<svg width="310" height="9" viewBox="0 0 310 9" fill="none" xmlns="http://www.w3.org/2000/svg">
<path d="M309.981 0.0471191H0.0123749V8.99996H309.981V0.0471191Z" fill="#E7E1C1"/>
<path d="M309.981 0.0471191H0.0123749V0.65982H309.981V0.0471191Z" fill="#F9F9F9"/>
<path d="M310.458 0H0V5.38381H310.458V0Z" fill="url(#paint0_linear_17_3)"/>
<defs>
<linearGradient id="paint0_linear_17_3" x1="155.23" y1="4.90348" x2="155.23" y2="-0.25872" gradientUnits="userSpaceOnUse">
<stop stop-color="white" stop-opacity="0"/>
<stop offset="1" stop-color="#231F20" stop-opacity="0.5"/>
</linearGradient>
</defs>
</svg>
