<svg width="332" height="206" viewBox="0 0 332 206" fill="none" xmlns="http://www.w3.org/2000/svg">
<g clip-path="url(#clip0_2_56)">
<path d="M10.4412 0.740112H0.0548096V196.526H10.4412V0.740112Z" fill="#CEC2AA"/>
<path d="M10.4412 196.526H0.0548096V205.737H10.4412V196.526Z" fill="#CEC2AA"/>
<path d="M331.668 196.526L331.712 205.799H320.935V196.526H331.668Z" fill="#CEC2AA"/>
<path d="M330.733 0.740112L331.668 196.526H320.935V0.740112H322.906H330.733Z" fill="#CEC2AA"/>
</g>
<defs>
<clipPath id="clip0_2_56">
<rect width="331.657" height="205.059" fill="white" transform="translate(0.0548096 0.740112)"/>
</clipPath>
</defs>
</svg>
